Data Wrangling
…
--

.large[
**Step 1:** What data do I start with?

```r
penguins
```

```
## # A tibble: 344 × 8
##    species   island    bill_length_mm bill_depth_mm flipper_length_… body_mass_g
##    <fct>     <fct>              <dbl>         <dbl>            <int>       <int>
##  1 Adelie    Dream               38.8          20                190        3950
##  2 Gentoo    Biscoe              47.5          15                218        4950
##  3 Adelie    Dream               36.2          17.3              187        3300
##  4 Gentoo    Biscoe              45.1          14.5              207        5050
##  5 Chinstrap Dream               45.2          16.6              191        3250
##  6 Adelie    Torgersen           36.2          17.2              187        3150
##  7 Gentoo    Biscoe              49.3          15.7              217        5850
##  8 Adelie    Biscoe              41.1          18.2              192        4050
##  9 Adelie    Torgersen           44.1          18                210        4000
## 10 Chinstrap Dream               52            20.7              210        4800
## # … with 334 more rows, and 2 more variables: sex <fct>, year <int>
```
…
.large[
.question[
We have three species of penguin (Adelie, Chinstrap, Gentoo). Let's make a subset with just the Chinstrap penguins.
]

**Step 2:** What do I do to that data?

```r
penguins %>%
  filter(species == "Chinstrap")
```
]

```
## # A tibble: 68 × 8
##    species   island bill_length_mm bill_depth_mm flipper_length_mm body_mass_g
##    <fct>     <fct>           <dbl>         <dbl>             <int>       <int>
##  1 Chinstrap Dream            45.2          16.6               191        3250
##  2 Chinstrap Dream            52            20.7               210        4800
##  3 Chinstrap Dream            54.2          20.8               201        4300
##  4 Chinstrap Dream            42.5          17.3               187        3350
##  5 Chinstrap Dream            45.5          17                 196        3500
##  6 Chinstrap Dream            50.2          18.8               202        3800
##  7 Chinstrap Dream            50.8          18.5               201        4450
##  8 Chinstrap Dream            50.5          18.4               200        3400
##  9 Chinstrap Dream            50.5          19.6               201        4050
## 10 Chinstrap Dream            46.5          17.9               192        3500
## # … with 58 more rows, and 2 more variables: sex <fct>, year <int>
```
…
```r
chinstrap_penguins <- penguins %>% 
  filter(species == "Chinstrap")

chinstrap_penguins
```

]

```
## # A tibble: 68 × 8
##    species   island bill_length_mm bill_depth_mm flipper_length_mm body_mass_g
##    <fct>     <fct>           <dbl>         <dbl>             <int>       <int>
##  1 Chinstrap Dream            45.2          16.6               191        3250
##  2 Chinstrap Dream            52            20.7               210        4800
##  3 Chinstrap Dream            54.2          20.8               201        4300
##  4 Chinstrap Dream            42.5          17.3               187        3350
##  5 Chinstrap Dream            45.5          17                 196        3500
##  6 Chinstrap Dream            50.2          18.8               202        3800
##  7 Chinstrap Dream            50.8          18.5               201        4450
##  8 Chinstrap Dream            50.5          18.4               200        3400
##  9 Chinstrap Dream            50.5          19.6               201        4050
## 10 Chinstrap Dream            46.5          17.9               192        3500
## # … with 58 more rows, and 2 more variables: sex <fct>, year <int>
```
…
--

.large[
**Step 1:** What data do I start with?

```r
chinstrap_penguins
```

```
## # A tibble: 68 × 8
##    species   island bill_length_mm bill_depth_mm flipper_length_mm body_mass_g
##    <fct>     <fct>           <dbl>         <dbl>             <int>       <int>
##  1 Chinstrap Dream            45.2          16.6               191        3250
##  2 Chinstrap Dream            52            20.7               210        4800
##  3 Chinstrap Dream            54.2          20.8               201        4300
##  4 Chinstrap Dream            42.5          17.3               187        3350
##  5 Chinstrap Dream            45.5          17                 196        3500
##  6 Chinstrap Dream            50.2          18.8               202        3800
##  7 Chinstrap Dream            50.8          18.5               201        4450
##  8 Chinstrap Dream            50.5          18.4               200        3400
##  9 Chinstrap Dream            50.5          19.6               201        4050
## 10 Chinstrap Dream            46.5          17.9               192        3500
## # … with 58 more rows, and 2 more variables: sex <fct>, year <int>
```
…
